{
    "contacts": [
      {
        "id": "XRTeZxmW05CyzFB7kZDL",
        "locationId": "8KyubGi8XhoKHCpIvzGp",
        "contactName": "lillymartin",
        "firstName": "lillymartin",
        "lastName": null,
        "companyName": null,
        "email": "lillymartin52@icloud.come",
        "phone": "+18038010729",
        "dnd": false,
        "type": "lead",
        "source": "facebook form lead",
        "assignedTo": null,
        "city": null,
        "state": null,
        "postalCode": null,
        "address1": null,
        "dateAdded": "2023-09-20T12:31:31.112Z",
        "dateUpdated": "2023-09-20T12:37:39.987Z",
        "dateOfBirth": null,
        "businessId": null,
        "tags": [],
        "country": "US",
        "additionalEmails": [],
        "attributions": [
          {
            "utmSessionSource": "Paid Social",
            "utmCampaign": "Instant Form  Campaign",
            "utmMedium": "Instant Form  Ad set",
            "utmCampaignId": "23858220349250527",
            "isFirst": true,
            "medium": "facebook",
            "mediumId": "822471972662770",
            "utmContent": "#2 IF"
          },
          {
            "utmSessionSource": "Paid Social",
            "isLast": true,
            "utmCampaign": "Instant Form  Campaign",
            "utmMedium": "Instant Form  Ad set",
            "utmCampaignId": "23858220349250527",
            "medium": "facebook",
            "mediumId": "822471972662770",
            "utmContent": "#2 IF"
          }
        ],
        "customFields": []
      },
      {
        "id": "jf4xWreG28DLQM6jvSyw",
        "locationId": "8KyubGi8XhoKHCpIvzGp",
        "contactName": "brenda smith",
        "firstName": "brenda",
        "lastName": "smith",
        "companyName": null,
        "email": "brendasmith071759@gmail.com",
        "phone": "+12602069703",
        "dnd": false,
        "type": "lead",
        "source": "facebook form lead",
        "assignedTo": null,
        "city": null,
        "state": null,
        "postalCode": null,
        "address1": null,
        "dateAdded": "2023-09-20T11:15:28.144Z",
        "dateUpdated": "2023-09-20T11:18:33.744Z",
        "dateOfBirth": null,
        "businessId": null,
        "tags": [],
        "country": "US",
        "additionalEmails": [],
        "attributions": [
          {
            "utmSessionSource": "Paid Social",
            "utmCampaign": "Instant Form  Campaign",
            "utmMedium": "Instant Form  Ad set",
            "utmCampaignId": "23858220349250527",
            "isFirst": true,
            "medium": "facebook",
            "mediumId": "822471972662770",
            "utmContent": "#2 IF"
          },
          {
            "utmSessionSource": "Paid Social",
            "isLast": true,
            "utmCampaign": "Instant Form  Campaign",
            "utmMedium": "Instant Form  Ad set",
            "utmCampaignId": "23858220349250527",
            "medium": "facebook",
            "mediumId": "822471972662770",
            "utmContent": "#2 IF"
          }
        ],
        "customFields": []
      },
      {
        "id": "Dh9X4IbLAdtmSgxkFedL",
        "locationId": "8KyubGi8XhoKHCpIvzGp",
        "contactName": "andrea.mccain@gohighlevel.com",
        "firstName": null,
        "lastName": null,
        "companyName": null,
        "email": "andrea.mccain@gohighlevel.com",
        "phone": null,
        "dnd": false,
        "type": "lead",
        "source": null,
        "assignedTo": null,
        "city": null,
        "state": null,
        "postalCode": null,
        "address1": null,
        "dateAdded": "2023-09-20T00:09:49.532Z",
        "dateUpdated": "2023-09-20T00:09:49.532Z",
        "dateOfBirth": null,
        "businessId": null,
        "tags": [],
        "country": "US",
        "additionalEmails": [],
        "customFields": []
      },
      {
        "id": "Hg21nRzFSQ3al5Tr6neF",
        "locationId": "8KyubGi8XhoKHCpIvzGp",
        "contactName": "norman a coulter sr.",
        "firstName": "norman",
        "lastName": "a coulter sr.",
        "companyName": null,
        "email": "coulter_110@sbcglobal.net",
        "phone": "+17144542371",
        "dnd": false,
        "type": "lead",
        "source": "facebook form lead",
        "assignedTo": null,
        "city": null,
        "state": null,
        "postalCode": null,
        "address1": null,
        "dateAdded": "2023-09-19T22:13:52.003Z",
        "dateUpdated": "2023-09-19T22:16:58.289Z",
        "dateOfBirth": null,
        "businessId": null,
        "tags": [],
        "country": "US",
        "additionalEmails": [],
        "attributions": [
          {
            "utmSessionSource": "Paid Social",
            "utmCampaign": "Instant Form  Campaign",
            "utmMedium": "Instant Form  Ad set",
            "utmCampaignId": "23858220349250527",
            "isFirst": true,
            "medium": "facebook",
            "mediumId": "822471972662770",
            "utmContent": "#2 IF"
          },
          {
            "utmSessionSource": "Paid Social",
            "isLast": true,
            "utmCampaign": "Instant Form  Campaign",
            "utmMedium": "Instant Form  Ad set",
            "utmCampaignId": "23858220349250527",
            "medium": "facebook",
            "mediumId": "822471972662770",
            "utmContent": "#2 IF"
          }
        ],
        "customFields": []
      },
      {
        "id": "kOZ8rBCgXA5sUo6D5c3e",
        "locationId": "8KyubGi8XhoKHCpIvzGp",
        "contactName": "elmo senter",
        "firstName": "elmo",
        "lastName": "senter",
        "companyName": null,
        "email": null,
        "phone": "+12532989742",
        "dnd": false,
        "type": "lead",
        "source": null,
        "assignedTo": null,
        "city": null,
        "state": null,
        "postalCode": null,
        "address1": null,
        "dateAdded": "2023-09-19T21:54:38.528Z",
        "dateUpdated": "2023-09-19T21:54:38.528Z",
        "dateOfBirth": null,
        "businessId": null,
        "tags": [],
        "country": "US",
        "additionalEmails": [],
        "attributions": [
          {
            "utmSessionSource": "CRM UI",
            "medium": "manual",
            "isFirst": true
          }
        ],
        "customFields": []
      },
      {
        "id": "ARjgQ0f5CbgmMoOQAVcx",
        "locationId": "8KyubGi8XhoKHCpIvzGp",
        "contactName": "(904) 377-1664",
        "firstName": null,
        "lastName": null,
        "companyName": null,
        "email": null,
        "phone": "+19043771664",
        "dnd": false,
        "type": "lead",
        "source": null,
        "assignedTo": null,
        "city": "ST AUGUSTINE",
        "state": "FL",
        "postalCode": "32164",
        "address1": null,
        "dateAdded": "2023-09-19T17:15:09.384Z",
        "dateUpdated": "2023-09-19T22:00:19.959Z",
        "dateOfBirth": null,
        "businessId": null,
        "tags": [],
        "country": "US",
        "additionalEmails": [],
        "attributions": [
          {
            "utmSessionSource": "Other",
            "isFirst": true,
            "medium": "conversation"
          }
        ],
        "customFields": []
      },
      {
        "id": "pmkYFIvdhAMiNXkdQlPO",
        "locationId": "8KyubGi8XhoKHCpIvzGp",
        "contactName": "leonard lawson",
        "firstName": "leonard",
        "lastName": "lawson",
        "companyName": null,
        "email": "ll19291728@gmail.com",
        "phone": "+16308818469",
        "dnd": false,
        "type": "lead",
        "source": "facebook form lead",
        "assignedTo": null,
        "city": null,
        "state": null,
        "postalCode": null,
        "address1": null,
        "dateAdded": "2023-09-19T08:56:00.112Z",
        "dateUpdated": "2023-09-20T08:59:06.940Z",
        "dateOfBirth": null,
        "businessId": null,
        "tags": [],
        "country": "US",
        "additionalEmails": [],
        "attributions": [
          {
            "utmSessionSource": "Paid Social",
            "utmCampaign": "Instant Form  Campaign",
            "utmMedium": "Instant Form  Ad set",
            "utmCampaignId": "23858220349250527",
            "isFirst": true,
            "medium": "facebook",
            "mediumId": "822471972662770",
            "utmContent": "#2 IF"
          },
          {
            "utmSessionSource": "Paid Social",
            "isLast": true,
            "utmCampaign": "Instant Form  Campaign",
            "utmMedium": "Instant Form  Ad set",
            "utmCampaignId": "23858220349250527",
            "medium": "facebook",
            "mediumId": "822471972662770",
            "utmContent": "#2 IF"
          }
        ],
        "customFields": []
      },
      {
        "id": "UAzOLlP74JlcJpLvOK33",
        "locationId": "8KyubGi8XhoKHCpIvzGp",
        "contactName": "carol davis todd",
        "firstName": "carol",
        "lastName": "davis todd",
        "companyName": null,
        "email": "caroltodd80@yahoo.com",
        "phone": "+19014813450",
        "dnd": false,
        "type": "lead",
        "source": "facebook form lead",
        "assignedTo": null,
        "city": null,
        "state": null,
        "postalCode": null,
        "address1": null,
        "dateAdded": "2023-09-19T02:29:33.998Z",
        "dateUpdated": "2023-09-19T02:30:21.860Z",
        "dateOfBirth": null,
        "businessId": null,
        "tags": [
          "$10k",
          "low income"
        ],
        "country": "US",
        "additionalEmails": [],
        "attributions": [
          {
            "utmSessionSource": "Paid Social",
            "utmCampaign": "Instant Form  Campaign",
            "utmMedium": "Instant Form  Ad set",
            "utmCampaignId": "23858220349250527",
            "isFirst": true,
            "medium": "facebook",
            "mediumId": "822471972662770",
            "utmContent": "#2 IF"
          },
          {
            "utmSessionSource": "Paid Social",
            "isLast": true,
            "utmCampaign": "Instant Form  Campaign",
            "utmMedium": "Instant Form  Ad set",
            "utmCampaignId": "23858220349250527",
            "medium": "facebook",
            "mediumId": "822471972662770",
            "utmContent": "#2 IF"
          }
        ],
        "customFields": []
      },
      {
        "id": "2LGn4FhwazJIhEHoFBAB",
        "locationId": "8KyubGi8XhoKHCpIvzGp",
        "contactName": "linda hall",
        "firstName": "linda",
        "lastName": "hall",
        "companyName": null,
        "email": "lhall7478@gmail.com",
        "phone": "+16142140344",
        "dnd": false,
        "type": "lead",
        "source": "facebook form lead",
        "assignedTo": null,
        "city": null,
        "state": null,
        "postalCode": null,
        "address1": null,
        "dateAdded": "2023-09-18T17:08:37.384Z",
        "dateUpdated": "2023-09-19T17:34:39.028Z",
        "dateOfBirth": null,
        "businessId": null,
        "tags": [],
        "country": "US",
        "additionalEmails": [],
        "attributions": [
          {
            "utmSessionSource": "Paid Social",
            "utmCampaign": "Instant Form  Campaign",
            "utmMedium": "Instant Form  Ad set",
            "utmCampaignId": "23858220349250527",
            "isFirst": true,
            "medium": "facebook",
            "mediumId": "822471972662770",
            "utmContent": "#2 IF"
          },
          {
            "utmSessionSource": "Paid Social",
            "isLast": true,
            "utmCampaign": "Instant Form  Campaign",
            "utmMedium": "Instant Form  Ad set",
            "utmCampaignId": "23858220349250527",
            "medium": "facebook",
            "mediumId": "822471972662770",
            "utmContent": "#2 IF"
          }
        ],
        "customFields": []
      },
      {
        "id": "r4DRBHuieIqqXDYE5JtB",
        "locationId": "8KyubGi8XhoKHCpIvzGp",
        "contactName": "kimberly denise davis",
        "firstName": "kimberly",
        "lastName": "denise davis",
        "companyName": null,
        "email": "nanakimdavis@gmail.com",
        "phone": "+15733304882",
        "dnd": false,
        "type": "lead",
        "source": "facebook form lead",
        "assignedTo": null,
        "city": null,
        "state": null,
        "postalCode": null,
        "address1": null,
        "dateAdded": "2023-09-18T15:27:23.336Z",
        "dateUpdated": "2023-09-18T17:09:46.065Z",
        "dateOfBirth": null,
        "businessId": null,
        "tags": [],
        "country": "US",
        "additionalEmails": [],
        "attributions": [
          {
            "utmSessionSource": "Paid Social",
            "utmCampaign": "Instant Form  Campaign",
            "utmMedium": "Instant Form  Ad set",
            "utmCampaignId": "23858220349250527",
            "isFirst": true,
            "medium": "facebook",
            "mediumId": "822471972662770",
            "utmContent": "#2 IF"
          },
          {
            "utmSessionSource": "Paid Social",
            "isLast": true,
            "utmCampaign": "Instant Form  Campaign",
            "utmMedium": "Instant Form  Ad set",
            "utmCampaignId": "23858220349250527",
            "medium": "facebook",
            "mediumId": "822471972662770",
            "utmContent": "#2 IF"
          }
        ],
        "customFields": []
      },
      {
        "id": "wK7SEEHK7s2es7C4bdZz",
        "locationId": "8KyubGi8XhoKHCpIvzGp",
        "contactName": "mclark@peachtreedebtrelief.com",
        "firstName": null,
        "lastName": null,
        "companyName": null,
        "email": "mclark@peachtreedebtrelief.com",
        "phone": null,
        "dnd": false,
        "type": "lead",
        "source": null,
        "assignedTo": null,
        "city": null,
        "state": null,
        "postalCode": null,
        "address1": null,
        "dateAdded": "2023-09-18T06:20:22.207Z",
        "dateUpdated": "2023-09-18T06:20:24.428Z",
        "dateOfBirth": null,
        "businessId": null,
        "tags": [],
        "country": "US",
        "additionalEmails": [],
        "customFields": []
      },
      {
        "id": "HjZHxW4uFtfNDB2mOE3K",
        "locationId": "8KyubGi8XhoKHCpIvzGp",
        "contactName": "alton beacham",
        "firstName": "alton",
        "lastName": "beacham",
        "companyName": null,
        "email": "altonrbeacham1969@gmail.com",
        "phone": "+12524029027",
        "dnd": false,
        "type": "lead",
        "source": "facebook form lead",
        "assignedTo": null,
        "city": null,
        "state": null,
        "postalCode": null,
        "address1": null,
        "dateAdded": "2023-09-17T22:39:59.211Z",
        "dateUpdated": "2023-09-17T22:47:17.392Z",
        "dateOfBirth": null,
        "businessId": null,
        "tags": [
          "$10k"
        ],
        "country": "US",
        "additionalEmails": [],
        "attributions": [
          {
            "utmSessionSource": "Paid Social",
            "utmCampaign": "Instant Form  Campaign",
            "utmMedium": "Instant Form  Ad set",
            "utmCampaignId": "23858220349250527",
            "isFirst": true,
            "medium": "facebook",
            "mediumId": "822471972662770",
            "utmContent": "#2 IF"
          },
          {
            "utmSessionSource": "Paid Social",
            "isLast": true,
            "utmCampaign": "Instant Form  Campaign",
            "utmMedium": "Instant Form  Ad set",
            "utmCampaignId": "23858220349250527",
            "medium": "facebook",
            "mediumId": "822471972662770",
            "utmContent": "#2 IF"
          }
        ],
        "customFields": []
      },
      {
        "id": "wd0bqF7peETE5RwdZGVN",
        "locationId": "8KyubGi8XhoKHCpIvzGp",
        "contactName": "carolyn clement",
        "firstName": "carolyn",
        "lastName": "clement",
        "companyName": null,
        "email": "clementcarolyn8@gmail.com",
        "phone": "+16624243940",
        "dnd": false,
        "type": "lead",
        "source": "facebook form lead",
        "assignedTo": null,
        "city": null,
        "state": null,
        "postalCode": null,
        "address1": null,
        "dateAdded": "2023-09-17T20:35:04.647Z",
        "dateUpdated": "2023-09-19T21:59:23.667Z",
        "dateOfBirth": null,
        "businessId": null,
        "tags": [],
        "country": "US",
        "additionalEmails": [],
        "attributions": [
          {
            "utmSessionSource": "Paid Social",
            "utmCampaign": "Instant Form  Campaign",
            "utmMedium": "Instant Form  Ad set",
            "utmCampaignId": "23858220349250527",
            "isFirst": true,
            "medium": "facebook",
            "mediumId": "822471972662770",
            "utmContent": "#2 IF"
          },
          {
            "utmSessionSource": "Paid Social",
            "isLast": true,
            "utmCampaign": "Instant Form  Campaign",
            "utmMedium": "Instant Form  Ad set",
            "utmCampaignId": "23858220349250527",
            "medium": "facebook",
            "mediumId": "822471972662770",
            "utmContent": "#2 IF"
          }
        ],
        "customFields": []
      },
      {
        "id": "idltdiX9uOc9jHqK5ohZ",
        "locationId": "8KyubGi8XhoKHCpIvzGp",
        "contactName": "gary schmldt",
        "firstName": "gary",
        "lastName": "schmldt",
        "companyName": null,
        "email": "gary.schmidt4545@gmail.com",
        "phone": "+17125792921",
        "dnd": false,
        "type": "lead",
        "source": "facebook form lead",
        "assignedTo": null,
        "city": null,
        "state": null,
        "postalCode": null,
        "address1": null,
        "dateAdded": "2023-09-17T20:18:55.768Z",
        "dateUpdated": "2023-09-18T20:22:03.647Z",
        "dateOfBirth": null,
        "businessId": null,
        "tags": [],
        "country": "US",
        "additionalEmails": [],
        "attributions": [
          {
            "utmSessionSource": "Paid Social",
            "utmCampaign": "Instant Form  Campaign",
            "utmMedium": "Instant Form  Ad set",
            "utmCampaignId": "23858220349250527",
            "isFirst": true,
            "medium": "facebook",
            "mediumId": "822471972662770",
            "utmContent": "#2 IF"
          },
          {
            "utmSessionSource": "Paid Social",
            "isLast": true,
            "utmCampaign": "Instant Form  Campaign",
            "utmMedium": "Instant Form  Ad set",
            "utmCampaignId": "23858220349250527",
            "medium": "facebook",
            "mediumId": "822471972662770",
            "utmContent": "#2 IF"
          }
        ],
        "customFields": []
      },
      {
        "id": "ssAyvp6BTJpEv5lnhyNl",
        "locationId": "8KyubGi8XhoKHCpIvzGp",
        "contactName": "annie brooks",
        "firstName": "annie",
        "lastName": "brooks",
        "companyName": null,
        "email": "maxxiedoodle@hotmail.com",
        "phone": "+16037503018",
        "dnd": false,
        "type": "lead",
        "source": "facebook form lead",
        "assignedTo": null,
        "city": null,
        "state": null,
        "postalCode": null,
        "address1": null,
        "dateAdded": "2023-09-17T14:47:15.444Z",
        "dateUpdated": "2023-09-18T16:43:27.014Z",
        "dateOfBirth": null,
        "businessId": null,
        "tags": [
          "$10k",
          "sql",
          "closed appointment"
        ],
        "country": "US",
        "additionalEmails": [],
        "attributions": [
          {
            "utmSessionSource": "Paid Social",
            "utmCampaign": "Instant Form  Campaign",
            "utmMedium": "Instant Form  Ad set",
            "utmCampaignId": "23858220349250527",
            "isFirst": true,
            "medium": "facebook",
            "mediumId": "822471972662770",
            "utmContent": "#2 IF"
          },
          {
            "utmSessionSource": "Direct traffic",
            "isLast": true
          }
        ],
        "customFields": []
      },
      {
        "id": "6Fa6wcFEjehlxMBn0qvp",
        "locationId": "8KyubGi8XhoKHCpIvzGp",
        "contactName": "kendra napier",
        "firstName": "kendra",
        "lastName": "napier",
        "companyName": null,
        "email": "lovingchick24@yahoo.com",
        "phone": "+17409999900",
        "dnd": false,
        "type": "lead",
        "source": "facebook form lead",
        "assignedTo": null,
        "city": null,
        "state": null,
        "postalCode": null,
        "address1": null,
        "dateAdded": "2023-09-17T14:21:11.622Z",
        "dateUpdated": "2023-09-19T21:59:48.728Z",
        "dateOfBirth": null,
        "businessId": null,
        "tags": [],
        "country": "US",
        "additionalEmails": [],
        "attributions": [
          {
            "utmSessionSource": "Paid Social",
            "utmCampaign": "Instant Form  Campaign",
            "utmMedium": "Instant Form  Ad set",
            "utmCampaignId": "23858220349250527",
            "isFirst": true,
            "medium": "facebook",
            "mediumId": "822471972662770",
            "utmContent": "#1 IF"
          },
          {
            "utmSessionSource": "Paid Social",
            "isLast": true,
            "utmCampaign": "Instant Form  Campaign",
            "utmMedium": "Instant Form  Ad set",
            "utmCampaignId": "23858220349250527",
            "medium": "facebook",
            "mediumId": "822471972662770",
            "utmContent": "#1 IF"
          }
        ],
        "customFields": []
      },
      {
        "id": "peRBwnNxjjsqgi2S2NMD",
        "locationId": "8KyubGi8XhoKHCpIvzGp",
        "contactName": "john strickland",
        "firstName": "john",
        "lastName": "strickland",
        "companyName": null,
        "email": "captjohn1013@gmail.com",
        "phone": "+18505571368",
        "dnd": false,
        "type": "lead",
        "source": "facebook form lead",
        "assignedTo": null,
        "city": null,
        "state": null,
        "postalCode": null,
        "address1": null,
        "dateAdded": "2023-09-17T12:55:32.440Z",
        "dateUpdated": "2023-09-17T22:42:19.003Z",
        "dateOfBirth": null,
        "businessId": null,
        "tags": [],
        "country": "US",
        "additionalEmails": [],
        "attributions": [
          {
            "utmSessionSource": "Paid Social",
            "utmCampaign": "Instant Form  Campaign",
            "utmMedium": "Instant Form  Ad set",
            "utmCampaignId": "23858220349250527",
            "isFirst": true,
            "medium": "facebook",
            "mediumId": "822471972662770",
            "utmContent": "#2 IF"
          },
          {
            "utmSessionSource": "Paid Social",
            "isLast": true,
            "utmCampaign": "Instant Form  Campaign",
            "utmMedium": "Instant Form  Ad set",
            "utmCampaignId": "23858220349250527",
            "medium": "facebook",
            "mediumId": "822471972662770",
            "utmContent": "#2 IF"
          }
        ],
        "customFields": []
      },
      {
        "id": "EEZplvuafBv4EC1jFPsS",
        "locationId": "8KyubGi8XhoKHCpIvzGp",
        "contactName": "ed cain",
        "firstName": "ed",
        "lastName": "cain",
        "companyName": null,
        "email": "e.cain58@yahoo.com",
        "phone": "+12194021633",
        "dnd": false,
        "type": "lead",
        "source": "facebook form lead",
        "assignedTo": null,
        "city": null,
        "state": null,
        "postalCode": null,
        "address1": null,
        "dateAdded": "2023-09-17T04:47:21.703Z",
        "dateUpdated": "2023-09-18T16:51:28.455Z",
        "dateOfBirth": null,
        "businessId": null,
        "tags": [],
        "country": "US",
        "additionalEmails": [],
        "attributions": [
          {
            "utmSessionSource": "Paid Social",
            "utmCampaign": "Instant Form  Campaign",
            "utmMedium": "Instant Form  Ad set",
            "utmCampaignId": "23858220349250527",
            "isFirst": true,
            "medium": "facebook",
            "mediumId": "822471972662770",
            "utmContent": "#1 IF"
          },
          {
            "utmSessionSource": "Paid Social",
            "isLast": true,
            "utmCampaign": "Instant Form  Campaign",
            "utmMedium": "Instant Form  Ad set",
            "utmCampaignId": "23858220349250527",
            "medium": "facebook",
            "mediumId": "822471972662770",
            "utmContent": "#1 IF"
          }
        ],
        "customFields": []
      },
      {
        "id": "mYNvcjSZeNiHghxBc7w5",
        "locationId": "8KyubGi8XhoKHCpIvzGp",
        "contactName": "toni le compte",
        "firstName": "toni",
        "lastName": "le compte",
        "companyName": null,
        "email": "toni.2.lecompte@gmail.com",
        "phone": "+17073279671",
        "dnd": false,
        "type": "lead",
        "source": "booking_widget",
        "assignedTo": "zaRlvsJu7Q3GDWh2KQ1L",
        "city": null,
        "state": null,
        "postalCode": null,
        "address1": null,
        "dateAdded": "2023-09-16T18:13:21.920Z",
        "dateUpdated": "2023-09-18T16:43:46.012Z",
        "dateOfBirth": null,
        "businessId": null,
        "tags": [
          "$10k",
          "sql",
          "closed appointment",
          "appointment scheduled"
        ],
        "country": "US",
        "additionalEmails": [],
        "attributions": [
          {
            "utmSessionSource": "Paid Social",
            "utmCampaign": "Instant Form  Campaign",
            "utmMedium": "Instant Form  Ad set",
            "utmCampaignId": "23858220349250527",
            "isFirst": true,
            "medium": "calendar",
            "mediumId": "2fZBi9HWyuoGAIa67yHf",
            "utmContent": "#2 IF"
          },
          {
            "utmSessionSource": "Direct traffic",
            "isLast": true
          }
        ],
        "timezone": "America/Los_Angeles",
        "customFields": []
      },
      {
        "id": "uKxTVF7f6gfW6PBGNGfm",
        "locationId": "8KyubGi8XhoKHCpIvzGp",
        "contactName": "cheryl rossow",
        "firstName": "cheryl",
        "lastName": "rossow",
        "companyName": null,
        "email": "cherylrossow98@gmail.com",
        "phone": "+12816821151",
        "dnd": false,
        "type": "lead",
        "source": "facebook form lead",
        "assignedTo": null,
        "city": null,
        "state": null,
        "postalCode": null,
        "address1": null,
        "dateAdded": "2023-09-16T16:30:42.126Z",
        "dateUpdated": "2023-09-18T16:50:46.368Z",
        "dateOfBirth": null,
        "businessId": null,
        "tags": [],
        "country": "US",
        "additionalEmails": [],
        "attributions": [
          {
            "utmSessionSource": "Paid Social",
            "utmCampaign": "Instant Form  Campaign",
            "utmMedium": "Instant Form  Ad set",
            "utmCampaignId": "23858220349250527",
            "isFirst": true,
            "medium": "facebook",
            "mediumId": "822471972662770",
            "utmContent": "#2 IF"
          },
          {
            "utmSessionSource": "Paid Social",
            "isLast": true,
            "utmCampaign": "Instant Form  Campaign",
            "utmMedium": "Instant Form  Ad set",
            "utmCampaignId": "23858220349250527",
            "medium": "facebook",
            "mediumId": "822471972662770",
            "utmContent": "#2 IF"
          }
        ],
        "customFields": []
      }
    ],
    "meta": {
      "total": 101,
      "nextPageUrl": "http://services.leadconnectorhq.com/contacts/?locationId=8KyubGi8XhoKHCpIvzGp&startAfter=1694881842126&startAfterId=uKxTVF7f6gfW6PBGNGfm",
      "startAfterId": "uKxTVF7f6gfW6PBGNGfm",
      "startAfter": 1694881842126,
      "currentPage": 1,
      "nextPage": 2,
      "prevPage": null
    },
    "traceId": "cac86b1f-dff4-4122-930f-206ec96997f3"
  }